starttime	seconds	ctime	dtime	ttime	wait
Mon Aug 25 21:15:54 2014	1408965354	77	219	295	218
Mon Aug 25 21:15:54 2014	1408965354	78	218	296	217
Mon Aug 25 21:15:54 2014	1408965354	75	222	297	221
Mon Aug 25 21:15:56 2014	1408965356	76	222	298	222
Mon Aug 25 21:15:56 2014	1408965356	78	220	298	220
Mon Aug 25 21:15:57 2014	1408965357	77	224	301	223
Mon Aug 25 21:15:56 2014	1408965356	80	221	301	220
Mon Aug 25 21:15:56 2014	1408965356	80	221	301	220
Mon Aug 25 21:15:54 2014	1408965354	78	223	301	223
Mon Aug 25 21:15:57 2014	1408965357	80	222	302	221
Mon Aug 25 21:15:54 2014	1408965354	80	222	302	222
Mon Aug 25 21:15:56 2014	1408965356	77	225	303	225
Mon Aug 25 21:15:45 2014	1408965345	79	224	303	223
Mon Aug 25 21:15:54 2014	1408965354	75	228	303	228
Mon Aug 25 21:15:54 2014	1408965354	82	221	303	221
Mon Aug 25 21:15:55 2014	1408965355	81	222	303	222
Mon Aug 25 21:15:57 2014	1408965357	80	224	303	223
Mon Aug 25 21:15:56 2014	1408965356	82	221	303	220
Mon Aug 25 21:15:54 2014	1408965354	85	219	304	218
Mon Aug 25 21:15:56 2014	1408965356	82	222	304	220
Mon Aug 25 21:15:54 2014	1408965354	81	223	304	223
Mon Aug 25 21:15:54 2014	1408965354	75	229	304	228
Mon Aug 25 21:15:45 2014	1408965345	81	223	304	222
Mon Aug 25 21:15:54 2014	1408965354	79	225	304	225
Mon Aug 25 21:15:56 2014	1408965356	83	222	304	221
Mon Aug 25 21:15:43 2014	1408965343	82	223	304	222
Mon Aug 25 21:15:57 2014	1408965357	80	224	304	224
Mon Aug 25 21:15:46 2014	1408965346	80	224	304	224
Mon Aug 25 21:15:57 2014	1408965357	78	227	305	225
Mon Aug 25 21:15:45 2014	1408965345	80	225	305	224
Mon Aug 25 21:15:57 2014	1408965357	79	226	305	225
Mon Aug 25 21:15:58 2014	1408965358	79	226	305	225
Mon Aug 25 21:15:43 2014	1408965343	81	224	305	223
Mon Aug 25 21:15:54 2014	1408965354	87	217	305	217
Mon Aug 25 21:15:55 2014	1408965355	81	224	305	223
Mon Aug 25 21:15:57 2014	1408965357	79	226	305	225
Mon Aug 25 21:15:55 2014	1408965355	82	223	305	223
Mon Aug 25 21:15:55 2014	1408965355	80	225	305	224
Mon Aug 25 21:15:43 2014	1408965343	77	228	305	222
Mon Aug 25 21:15:57 2014	1408965357	79	226	305	226
Mon Aug 25 21:15:43 2014	1408965343	84	222	306	221
Mon Aug 25 21:15:51 2014	1408965351	81	225	306	224
Mon Aug 25 21:15:45 2014	1408965345	81	225	306	224
Mon Aug 25 21:15:57 2014	1408965357	79	226	306	226
Mon Aug 25 21:15:45 2014	1408965345	80	225	306	224
Mon Aug 25 21:15:56 2014	1408965356	82	224	306	224
Mon Aug 25 21:15:57 2014	1408965357	79	227	306	226
Mon Aug 25 21:15:55 2014	1408965355	82	224	306	223
Mon Aug 25 21:15:45 2014	1408965345	81	225	306	222
Mon Aug 25 21:15:52 2014	1408965352	80	227	306	226
Mon Aug 25 21:15:47 2014	1408965347	82	224	306	224
Mon Aug 25 21:15:45 2014	1408965345	82	224	306	224
Mon Aug 25 21:15:58 2014	1408965358	81	225	306	224
Mon Aug 25 21:15:46 2014	1408965346	80	227	306	223
Mon Aug 25 21:15:45 2014	1408965345	82	225	306	223
Mon Aug 25 21:15:58 2014	1408965358	81	225	306	224
Mon Aug 25 21:15:43 2014	1408965343	80	226	306	226
Mon Aug 25 21:15:43 2014	1408965343	79	228	307	227
Mon Aug 25 21:15:54 2014	1408965354	80	227	307	227
Mon Aug 25 21:15:57 2014	1408965357	81	226	307	225
Mon Aug 25 21:15:57 2014	1408965357	79	228	307	227
Mon Aug 25 21:15:56 2014	1408965356	86	221	307	221
Mon Aug 25 21:15:57 2014	1408965357	80	227	307	226
Mon Aug 25 21:15:43 2014	1408965343	79	228	307	227
Mon Aug 25 21:15:43 2014	1408965343	79	228	307	227
Mon Aug 25 21:15:58 2014	1408965358	82	225	307	224
Mon Aug 25 21:15:46 2014	1408965346	80	227	307	227
Mon Aug 25 21:15:43 2014	1408965343	80	227	307	227
Mon Aug 25 21:15:45 2014	1408965345	82	226	308	225
Mon Aug 25 21:15:46 2014	1408965346	83	225	308	224
Mon Aug 25 21:15:53 2014	1408965353	83	225	308	224
Mon Aug 25 21:15:58 2014	1408965358	81	227	308	227
Mon Aug 25 21:15:46 2014	1408965346	82	226	308	225
Mon Aug 25 21:15:56 2014	1408965356	79	228	308	228
Mon Aug 25 21:15:46 2014	1408965346	82	225	308	225
Mon Aug 25 21:15:52 2014	1408965352	84	224	308	223
Mon Aug 25 21:15:43 2014	1408965343	80	228	308	228
Mon Aug 25 21:15:43 2014	1408965343	81	227	308	226
Mon Aug 25 21:15:54 2014	1408965354	85	223	308	222
Mon Aug 25 21:15:55 2014	1408965355	83	225	308	225
Mon Aug 25 21:15:45 2014	1408965345	80	228	308	226
Mon Aug 25 21:15:58 2014	1408965358	82	226	308	225
Mon Aug 25 21:15:54 2014	1408965354	86	222	308	222
Mon Aug 25 21:15:54 2014	1408965354	82	226	308	226
Mon Aug 25 21:15:43 2014	1408965343	87	222	308	221
Mon Aug 25 21:15:54 2014	1408965354	85	223	308	223
Mon Aug 25 21:15:52 2014	1408965352	80	228	308	228
Mon Aug 25 21:15:53 2014	1408965353	83	225	308	225
Mon Aug 25 21:15:52 2014	1408965352	81	227	308	227
Mon Aug 25 21:15:43 2014	1408965343	82	226	308	226
Mon Aug 25 21:15:45 2014	1408965345	83	226	308	226
Mon Aug 25 21:15:43 2014	1408965343	86	222	308	221
Mon Aug 25 21:15:55 2014	1408965355	83	226	308	225
Mon Aug 25 21:15:43 2014	1408965343	80	229	308	228
Mon Aug 25 21:15:43 2014	1408965343	81	227	308	227
Mon Aug 25 21:15:56 2014	1408965356	81	227	309	227
Mon Aug 25 21:15:57 2014	1408965357	85	223	309	223
Mon Aug 25 21:15:45 2014	1408965345	81	227	309	227
Mon Aug 25 21:15:51 2014	1408965351	84	225	309	224
Mon Aug 25 21:15:45 2014	1408965345	82	227	309	224
Mon Aug 25 21:15:56 2014	1408965356	81	228	309	227
Mon Aug 25 21:15:58 2014	1408965358	82	227	309	226
Mon Aug 25 21:15:58 2014	1408965358	82	227	309	226
Mon Aug 25 21:15:57 2014	1408965357	81	228	309	227
Mon Aug 25 21:15:53 2014	1408965353	86	223	309	223
Mon Aug 25 21:15:45 2014	1408965345	83	226	309	225
Mon Aug 25 21:15:56 2014	1408965356	88	221	309	221
Mon Aug 25 21:15:52 2014	1408965352	81	228	309	227
Mon Aug 25 21:15:46 2014	1408965346	85	224	309	224
Mon Aug 25 21:15:45 2014	1408965345	82	228	309	226
Mon Aug 25 21:15:52 2014	1408965352	81	228	309	227
Mon Aug 25 21:15:46 2014	1408965346	80	229	309	228
Mon Aug 25 21:15:56 2014	1408965356	80	229	309	229
Mon Aug 25 21:15:54 2014	1408965354	85	224	309	223
Mon Aug 25 21:15:43 2014	1408965343	85	225	309	224
Mon Aug 25 21:15:42 2014	1408965342	80	230	310	229
Mon Aug 25 21:15:42 2014	1408965342	86	224	310	223
Mon Aug 25 21:15:58 2014	1408965358	86	224	310	224
Mon Aug 25 21:15:43 2014	1408965343	81	229	310	228
Mon Aug 25 21:15:58 2014	1408965358	81	229	310	229
Mon Aug 25 21:15:58 2014	1408965358	82	227	310	227
Mon Aug 25 21:15:47 2014	1408965347	79	230	310	230
Mon Aug 25 21:15:43 2014	1408965343	85	225	310	224
Mon Aug 25 21:15:46 2014	1408965346	83	226	310	226
Mon Aug 25 21:15:55 2014	1408965355	84	226	310	226
Mon Aug 25 21:15:53 2014	1408965353	83	227	310	227
Mon Aug 25 21:15:52 2014	1408965352	82	228	310	228
Mon Aug 25 21:15:52 2014	1408965352	85	225	310	224
Mon Aug 25 21:15:54 2014	1408965354	81	229	310	228
Mon Aug 25 21:15:43 2014	1408965343	80	230	310	230
Mon Aug 25 21:15:47 2014	1408965347	83	228	310	227
Mon Aug 25 21:15:42 2014	1408965342	85	226	311	225
Mon Aug 25 21:15:43 2014	1408965343	86	224	311	224
Mon Aug 25 21:15:43 2014	1408965343	77	234	311	231
Mon Aug 25 21:15:43 2014	1408965343	88	223	311	222
Mon Aug 25 21:15:44 2014	1408965344	82	229	311	229
Mon Aug 25 21:15:52 2014	1408965352	84	227	311	226
Mon Aug 25 21:15:52 2014	1408965352	85	226	311	225
Mon Aug 25 21:15:43 2014	1408965343	83	228	311	228
Mon Aug 25 21:15:54 2014	1408965354	89	222	311	221
Mon Aug 25 21:15:57 2014	1408965357	83	227	311	227
Mon Aug 25 21:15:56 2014	1408965356	86	225	311	222
Mon Aug 25 21:15:58 2014	1408965358	82	229	311	228
Mon Aug 25 21:15:44 2014	1408965344	83	228	311	227
Mon Aug 25 21:15:52 2014	1408965352	85	226	311	225
Mon Aug 25 21:15:51 2014	1408965351	80	231	311	231
Mon Aug 25 21:15:43 2014	1408965343	84	227	311	226
Mon Aug 25 21:15:57 2014	1408965357	83	228	311	228
Mon Aug 25 21:15:57 2014	1408965357	80	231	311	230
Mon Aug 25 21:15:44 2014	1408965344	82	229	311	228
Mon Aug 25 21:15:44 2014	1408965344	85	227	311	226
Mon Aug 25 21:15:58 2014	1408965358	85	226	311	226
Mon Aug 25 21:15:52 2014	1408965352	83	228	311	228
Mon Aug 25 21:15:46 2014	1408965346	82	229	311	227
Mon Aug 25 21:15:52 2014	1408965352	84	228	311	227
Mon Aug 25 21:15:51 2014	1408965351	81	230	311	229
Mon Aug 25 21:15:46 2014	1408965346	83	228	311	228
Mon Aug 25 21:15:44 2014	1408965344	86	225	312	225
Mon Aug 25 21:15:46 2014	1408965346	85	227	312	226
Mon Aug 25 21:15:57 2014	1408965357	85	226	312	225
Mon Aug 25 21:15:56 2014	1408965356	83	228	312	227
Mon Aug 25 21:15:42 2014	1408965342	80	231	312	231
Mon Aug 25 21:15:54 2014	1408965354	87	225	312	224
Mon Aug 25 21:15:58 2014	1408965358	83	228	312	228
Mon Aug 25 21:15:57 2014	1408965357	80	231	312	231
Mon Aug 25 21:15:46 2014	1408965346	87	225	312	225
Mon Aug 25 21:15:47 2014	1408965347	83	229	312	227
Mon Aug 25 21:15:53 2014	1408965353	83	228	312	228
Mon Aug 25 21:15:46 2014	1408965346	83	229	312	228
Mon Aug 25 21:15:57 2014	1408965357	84	228	312	228
Mon Aug 25 21:15:56 2014	1408965356	86	226	312	225
Mon Aug 25 21:15:58 2014	1408965358	84	228	312	227
Mon Aug 25 21:15:46 2014	1408965346	83	229	312	229
Mon Aug 25 21:15:57 2014	1408965357	83	229	312	228
Mon Aug 25 21:15:57 2014	1408965357	85	227	312	227
Mon Aug 25 21:15:54 2014	1408965354	86	226	312	226
Mon Aug 25 21:15:43 2014	1408965343	82	230	312	229
Mon Aug 25 21:15:57 2014	1408965357	79	233	312	233
Mon Aug 25 21:15:42 2014	1408965342	86	227	312	226
Mon Aug 25 21:15:58 2014	1408965358	82	230	312	230
Mon Aug 25 21:15:53 2014	1408965353	83	229	312	229
Mon Aug 25 21:15:47 2014	1408965347	87	225	312	225
Mon Aug 25 21:15:44 2014	1408965344	87	225	312	225
Mon Aug 25 21:15:54 2014	1408965354	84	229	312	228
Mon Aug 25 21:15:53 2014	1408965353	82	230	313	230
Mon Aug 25 21:15:53 2014	1408965353	83	230	313	229
Mon Aug 25 21:15:58 2014	1408965358	83	230	313	230
Mon Aug 25 21:15:43 2014	1408965343	83	230	313	230
Mon Aug 25 21:15:58 2014	1408965358	83	230	313	229
Mon Aug 25 21:15:57 2014	1408965357	82	231	313	230
Mon Aug 25 21:15:53 2014	1408965353	85	228	313	227
Mon Aug 25 21:15:44 2014	1408965344	84	229	313	229
Mon Aug 25 21:15:47 2014	1408965347	84	229	313	229
Mon Aug 25 21:15:44 2014	1408965344	88	225	313	224
Mon Aug 25 21:15:44 2014	1408965344	82	231	313	231
Mon Aug 25 21:15:47 2014	1408965347	84	229	313	229
Mon Aug 25 21:15:47 2014	1408965347	82	231	313	230
Mon Aug 25 21:15:46 2014	1408965346	86	227	313	227
Mon Aug 25 21:15:55 2014	1408965355	84	229	313	229
Mon Aug 25 21:15:56 2014	1408965356	85	229	313	228
Mon Aug 25 21:15:53 2014	1408965353	85	229	313	228
Mon Aug 25 21:15:56 2014	1408965356	84	229	313	228
Mon Aug 25 21:15:55 2014	1408965355	87	227	313	226
Mon Aug 25 21:15:53 2014	1408965353	84	229	313	229
Mon Aug 25 21:15:43 2014	1408965343	83	230	313	225
Mon Aug 25 21:15:55 2014	1408965355	83	230	313	229
Mon Aug 25 21:15:46 2014	1408965346	81	232	313	231
Mon Aug 25 21:15:43 2014	1408965343	82	232	314	231
Mon Aug 25 21:15:52 2014	1408965352	85	229	314	228
Mon Aug 25 21:15:52 2014	1408965352	86	228	314	227
Mon Aug 25 21:15:47 2014	1408965347	87	226	314	226
Mon Aug 25 21:15:45 2014	1408965345	87	227	314	227
Mon Aug 25 21:15:56 2014	1408965356	85	229	314	229
Mon Aug 25 21:15:53 2014	1408965353	82	232	314	230
Mon Aug 25 21:15:55 2014	1408965355	82	232	314	231
Mon Aug 25 21:15:53 2014	1408965353	83	230	314	230
Mon Aug 25 21:15:57 2014	1408965357	84	230	314	230
Mon Aug 25 21:15:47 2014	1408965347	86	228	314	227
Mon Aug 25 21:15:53 2014	1408965353	83	231	314	231
Mon Aug 25 21:15:52 2014	1408965352	84	230	314	230
Mon Aug 25 21:15:44 2014	1408965344	85	229	314	228
Mon Aug 25 21:15:52 2014	1408965352	82	232	314	232
Mon Aug 25 21:15:44 2014	1408965344	88	227	314	226
Mon Aug 25 21:15:58 2014	1408965358	85	229	314	228
Mon Aug 25 21:15:53 2014	1408965353	85	229	314	229
Mon Aug 25 21:15:44 2014	1408965344	88	226	314	226
Mon Aug 25 21:15:44 2014	1408965344	83	231	314	230
Mon Aug 25 21:15:52 2014	1408965352	85	229	314	229
Mon Aug 25 21:15:47 2014	1408965347	88	226	315	224
Mon Aug 25 21:15:44 2014	1408965344	86	229	315	226
Mon Aug 25 21:15:53 2014	1408965353	86	229	315	228
Mon Aug 25 21:15:57 2014	1408965357	84	230	315	230
Mon Aug 25 21:15:52 2014	1408965352	83	231	315	231
Mon Aug 25 21:15:46 2014	1408965346	88	227	315	226
Mon Aug 25 21:15:47 2014	1408965347	88	227	315	226
Mon Aug 25 21:15:43 2014	1408965343	91	224	315	224
Mon Aug 25 21:15:54 2014	1408965354	75	240	315	231
Mon Aug 25 21:15:46 2014	1408965346	83	232	315	231
Mon Aug 25 21:15:47 2014	1408965347	86	230	315	229
Mon Aug 25 21:15:44 2014	1408965344	84	231	315	230
Mon Aug 25 21:15:44 2014	1408965344	82	233	315	233
Mon Aug 25 21:15:44 2014	1408965344	83	233	315	232
Mon Aug 25 21:15:53 2014	1408965353	86	230	315	229
Mon Aug 25 21:15:53 2014	1408965353	84	232	315	230
Mon Aug 25 21:15:53 2014	1408965353	82	233	315	233
Mon Aug 25 21:15:53 2014	1408965353	87	229	315	229
Mon Aug 25 21:15:44 2014	1408965344	84	232	316	231
Mon Aug 25 21:15:46 2014	1408965346	88	228	316	228
Mon Aug 25 21:15:46 2014	1408965346	88	227	316	227
Mon Aug 25 21:15:44 2014	1408965344	84	232	316	231
Mon Aug 25 21:15:56 2014	1408965356	83	233	316	231
Mon Aug 25 21:15:44 2014	1408965344	88	227	316	227
Mon Aug 25 21:15:42 2014	1408965342	81	234	316	232
Mon Aug 25 21:15:44 2014	1408965344	89	227	316	226
Mon Aug 25 21:15:42 2014	1408965342	89	227	316	227
Mon Aug 25 21:15:45 2014	1408965345	84	232	316	231
Mon Aug 25 21:15:52 2014	1408965352	85	231	316	230
Mon Aug 25 21:15:53 2014	1408965353	86	230	316	229
Mon Aug 25 21:15:43 2014	1408965343	89	228	316	227
Mon Aug 25 21:15:46 2014	1408965346	86	230	316	230
Mon Aug 25 21:15:53 2014	1408965353	84	232	317	231
Mon Aug 25 21:15:42 2014	1408965342	83	234	317	234
Mon Aug 25 21:15:54 2014	1408965354	88	228	317	228
Mon Aug 25 21:15:53 2014	1408965353	88	228	317	228
Mon Aug 25 21:15:54 2014	1408965354	81	236	317	234
Mon Aug 25 21:15:46 2014	1408965346	92	224	317	224
Mon Aug 25 21:15:52 2014	1408965352	89	227	317	226
Mon Aug 25 21:15:56 2014	1408965356	87	230	317	229
Mon Aug 25 21:15:45 2014	1408965345	89	227	317	227
Mon Aug 25 21:15:46 2014	1408965346	83	234	317	234
Mon Aug 25 21:15:46 2014	1408965346	85	232	317	230
Mon Aug 25 21:15:53 2014	1408965353	84	233	317	233
Mon Aug 25 21:15:43 2014	1408965343	82	234	317	234
Mon Aug 25 21:15:44 2014	1408965344	90	227	317	226
Mon Aug 25 21:15:52 2014	1408965352	91	226	317	225
Mon Aug 25 21:15:47 2014	1408965347	92	225	317	224
Mon Aug 25 21:15:56 2014	1408965356	86	231	317	230
Mon Aug 25 21:15:46 2014	1408965346	87	230	317	229
Mon Aug 25 21:15:52 2014	1408965352	89	228	317	228
Mon Aug 25 21:15:53 2014	1408965353	89	229	317	228
Mon Aug 25 21:15:54 2014	1408965354	86	231	317	229
Mon Aug 25 21:15:44 2014	1408965344	86	232	317	231
Mon Aug 25 21:15:43 2014	1408965343	83	235	318	234
Mon Aug 25 21:15:52 2014	1408965352	85	232	318	231
Mon Aug 25 21:15:53 2014	1408965353	82	235	318	235
Mon Aug 25 21:15:57 2014	1408965357	84	234	318	232
Mon Aug 25 21:15:57 2014	1408965357	81	237	318	237
Mon Aug 25 21:15:52 2014	1408965352	88	230	318	230
Mon Aug 25 21:15:53 2014	1408965353	87	231	318	231
Mon Aug 25 21:15:57 2014	1408965357	91	227	318	227
Mon Aug 25 21:15:47 2014	1408965347	89	230	319	227
Mon Aug 25 21:15:46 2014	1408965346	81	238	319	229
Mon Aug 25 21:15:54 2014	1408965354	93	226	319	226
Mon Aug 25 21:15:46 2014	1408965346	82	237	319	236
Mon Aug 25 21:15:47 2014	1408965347	85	234	319	233
Mon Aug 25 21:15:44 2014	1408965344	88	231	319	230
Mon Aug 25 21:15:47 2014	1408965347	86	234	319	234
Mon Aug 25 21:15:53 2014	1408965353	87	232	319	232
Mon Aug 25 21:15:56 2014	1408965356	85	235	320	234
Mon Aug 25 21:15:47 2014	1408965347	92	228	320	227
Mon Aug 25 21:15:56 2014	1408965356	83	237	320	236
Mon Aug 25 21:15:56 2014	1408965356	86	234	320	233
Mon Aug 25 21:15:46 2014	1408965346	93	227	320	226
Mon Aug 25 21:15:48 2014	1408965348	94	226	320	226
Mon Aug 25 21:15:52 2014	1408965352	84	236	320	235
Mon Aug 25 21:15:45 2014	1408965345	91	229	320	228
Mon Aug 25 21:15:45 2014	1408965345	82	239	320	239
Mon Aug 25 21:15:52 2014	1408965352	84	237	320	234
Mon Aug 25 21:15:52 2014	1408965352	90	231	321	229
Mon Aug 25 21:15:45 2014	1408965345	86	235	321	235
Mon Aug 25 21:15:48 2014	1408965348	85	236	321	234
Mon Aug 25 21:15:54 2014	1408965354	82	239	321	238
Mon Aug 25 21:15:44 2014	1408965344	93	228	321	228
Mon Aug 25 21:15:52 2014	1408965352	93	228	321	226
Mon Aug 25 21:15:46 2014	1408965346	94	228	322	227
Mon Aug 25 21:15:48 2014	1408965348	92	230	322	229
Mon Aug 25 21:15:54 2014	1408965354	94	228	322	228
Mon Aug 25 21:15:44 2014	1408965344	93	229	322	229
Mon Aug 25 21:15:45 2014	1408965345	80	242	322	242
Mon Aug 25 21:15:56 2014	1408965356	86	236	322	234
Mon Aug 25 21:15:44 2014	1408965344	85	237	322	236
Mon Aug 25 21:15:48 2014	1408965348	84	239	322	239
Mon Aug 25 21:15:53 2014	1408965353	91	232	322	231
Mon Aug 25 21:15:44 2014	1408965344	84	239	323	239
Mon Aug 25 21:15:47 2014	1408965347	98	227	325	226
Mon Aug 25 21:15:47 2014	1408965347	95	230	325	229
Mon Aug 25 21:15:55 2014	1408965355	89	236	325	236
Mon Aug 25 21:15:55 2014	1408965355	98	228	325	227
Mon Aug 25 21:15:51 2014	1408965351	100	226	326	225
Mon Aug 25 21:15:48 2014	1408965348	98	228	326	228
Mon Aug 25 21:15:47 2014	1408965347	91	235	326	235
Mon Aug 25 21:15:48 2014	1408965348	85	241	326	239
Mon Aug 25 21:15:48 2014	1408965348	95	232	326	232
Mon Aug 25 21:15:47 2014	1408965347	99	228	326	228
Mon Aug 25 21:15:48 2014	1408965348	93	234	326	233
Mon Aug 25 21:15:47 2014	1408965347	87	240	326	239
Mon Aug 25 21:15:56 2014	1408965356	88	239	327	239
Mon Aug 25 21:15:47 2014	1408965347	85	243	328	240
Mon Aug 25 21:15:55 2014	1408965355	91	237	328	234
Mon Aug 25 21:15:56 2014	1408965356	88	241	328	240
Mon Aug 25 21:15:45 2014	1408965345	81	248	329	243
Mon Aug 25 21:15:44 2014	1408965344	92	237	329	235
Mon Aug 25 21:15:45 2014	1408965345	101	230	330	229
Mon Aug 25 21:15:55 2014	1408965355	90	241	330	241
Mon Aug 25 21:15:45 2014	1408965345	100	231	331	231
Mon Aug 25 21:15:51 2014	1408965351	101	231	331	230
Mon Aug 25 21:15:48 2014	1408965348	91	241	332	238
Mon Aug 25 21:15:45 2014	1408965345	90	242	332	242
Mon Aug 25 21:15:51 2014	1408965351	102	230	332	229
Mon Aug 25 21:15:55 2014	1408965355	100	233	333	228
Mon Aug 25 21:15:48 2014	1408965348	83	250	334	250
Mon Aug 25 21:15:45 2014	1408965345	107	228	334	227
Mon Aug 25 21:15:45 2014	1408965345	83	254	337	251
Mon Aug 25 21:15:55 2014	1408965355	106	231	337	231
Mon Aug 25 21:15:47 2014	1408965347	100	238	338	237
Mon Aug 25 21:15:47 2014	1408965347	99	240	339	239
Mon Aug 25 21:15:55 2014	1408965355	81	260	341	259
Mon Aug 25 21:15:45 2014	1408965345	109	234	343	233
Mon Aug 25 21:15:58 2014	1408965358	118	226	344	226
Mon Aug 25 21:15:55 2014	1408965355	111	233	344	229
Mon Aug 25 21:15:47 2014	1408965347	108	237	345	236
Mon Aug 25 21:15:47 2014	1408965347	115	230	345	229
Mon Aug 25 21:15:57 2014	1408965357	83	262	345	261
Mon Aug 25 21:15:47 2014	1408965347	97	249	346	246
Mon Aug 25 21:15:46 2014	1408965346	82	265	347	263
Mon Aug 25 21:15:44 2014	1408965344	87	261	348	259
Mon Aug 25 21:15:47 2014	1408965347	118	230	348	229
Mon Aug 25 21:15:58 2014	1408965358	121	227	348	226
Mon Aug 25 21:15:47 2014	1408965347	116	232	348	231
Mon Aug 25 21:15:45 2014	1408965345	91	258	349	258
Mon Aug 25 21:15:55 2014	1408965355	116	233	349	233
Mon Aug 25 21:15:55 2014	1408965355	121	232	353	231
Mon Aug 25 21:15:55 2014	1408965355	115	242	357	241
Mon Aug 25 21:15:55 2014	1408965355	117	249	365	248
Mon Aug 25 21:15:55 2014	1408965355	124	242	366	242
Mon Aug 25 21:15:55 2014	1408965355	85	286	371	285
Mon Aug 25 21:15:55 2014	1408965355	95	279	375	279
Mon Aug 25 21:15:42 2014	1408965342	85	291	376	291
Mon Aug 25 21:15:42 2014	1408965342	84	294	378	293
Mon Aug 25 21:15:56 2014	1408965356	81	298	378	294
Mon Aug 25 21:15:42 2014	1408965342	85	293	379	293
Mon Aug 25 21:15:42 2014	1408965342	87	294	381	293
Mon Aug 25 21:15:51 2014	1408965351	84	298	382	298
Mon Aug 25 21:15:42 2014	1408965342	89	298	387	295
Mon Aug 25 21:15:55 2014	1408965355	163	230	393	229
Mon Aug 25 21:15:55 2014	1408965355	83	310	394	309
Mon Aug 25 21:15:57 2014	1408965357	85	310	395	309
Mon Aug 25 21:15:55 2014	1408965355	87	310	397	309
Mon Aug 25 21:15:56 2014	1408965356	89	317	407	317
