starttime	seconds	ctime	dtime	ttime	wait
Mon Aug 25 21:30:22 2014	1408966222	96	95	190	95
Mon Aug 25 21:30:20 2014	1408966220	95	96	191	96
Mon Aug 25 21:30:19 2014	1408966219	96	95	191	95
Mon Aug 25 21:30:21 2014	1408966221	95	96	191	96
Mon Aug 25 21:30:22 2014	1408966222	95	97	192	97
Mon Aug 25 21:30:19 2014	1408966219	97	95	192	95
Mon Aug 25 21:30:23 2014	1408966223	96	96	192	96
Mon Aug 25 21:30:19 2014	1408966219	96	95	192	95
Mon Aug 25 21:30:20 2014	1408966220	96	96	192	96
Mon Aug 25 21:30:20 2014	1408966220	96	97	193	97
Mon Aug 25 21:30:23 2014	1408966223	97	96	193	96
Mon Aug 25 21:30:20 2014	1408966220	97	96	194	96
Mon Aug 25 21:30:23 2014	1408966223	97	97	194	97
Mon Aug 25 21:30:20 2014	1408966220	96	98	194	98
Mon Aug 25 21:30:20 2014	1408966220	96	98	194	98
Mon Aug 25 21:30:23 2014	1408966223	97	97	194	97
Mon Aug 25 21:30:23 2014	1408966223	97	97	194	97
Mon Aug 25 21:30:21 2014	1408966221	95	99	194	99
Mon Aug 25 21:30:21 2014	1408966221	96	98	194	98
Mon Aug 25 21:30:21 2014	1408966221	97	97	195	97
Mon Aug 25 21:30:21 2014	1408966221	96	99	195	99
Mon Aug 25 21:30:20 2014	1408966220	98	96	195	96
Mon Aug 25 21:30:21 2014	1408966221	96	99	195	99
Mon Aug 25 21:30:20 2014	1408966220	98	97	195	97
Mon Aug 25 21:30:20 2014	1408966220	97	98	195	98
Mon Aug 25 21:30:21 2014	1408966221	97	98	195	98
Mon Aug 25 21:30:23 2014	1408966223	97	97	195	97
Mon Aug 25 21:30:23 2014	1408966223	96	99	195	99
Mon Aug 25 21:30:20 2014	1408966220	97	98	195	98
Mon Aug 25 21:30:20 2014	1408966220	96	99	195	99
Mon Aug 25 21:30:22 2014	1408966222	97	99	196	99
Mon Aug 25 21:30:23 2014	1408966223	98	98	196	98
Mon Aug 25 21:30:23 2014	1408966223	98	98	196	98
Mon Aug 25 21:30:21 2014	1408966221	99	97	196	97
Mon Aug 25 21:30:19 2014	1408966219	100	96	196	96
Mon Aug 25 21:30:20 2014	1408966220	98	98	196	98
Mon Aug 25 21:30:20 2014	1408966220	98	98	196	98
Mon Aug 25 21:30:21 2014	1408966221	97	99	196	99
Mon Aug 25 21:30:23 2014	1408966223	96	100	196	100
Mon Aug 25 21:30:21 2014	1408966221	97	100	196	100
Mon Aug 25 21:30:21 2014	1408966221	98	98	196	98
Mon Aug 25 21:30:23 2014	1408966223	97	100	196	99
Mon Aug 25 21:30:19 2014	1408966219	97	99	196	99
Mon Aug 25 21:30:22 2014	1408966222	98	99	197	99
Mon Aug 25 21:30:21 2014	1408966221	97	100	197	99
Mon Aug 25 21:30:23 2014	1408966223	99	98	197	97
Mon Aug 25 21:30:19 2014	1408966219	97	99	197	99
Mon Aug 25 21:30:22 2014	1408966222	97	100	197	100
Mon Aug 25 21:30:23 2014	1408966223	98	99	197	98
Mon Aug 25 21:30:20 2014	1408966220	99	98	197	98
Mon Aug 25 21:30:19 2014	1408966219	99	98	197	98
Mon Aug 25 21:30:19 2014	1408966219	98	99	197	99
Mon Aug 25 21:30:22 2014	1408966222	96	101	197	101
Mon Aug 25 21:30:22 2014	1408966222	100	98	197	98
Mon Aug 25 21:30:19 2014	1408966219	102	96	197	96
Mon Aug 25 21:30:20 2014	1408966220	100	98	198	98
Mon Aug 25 21:30:19 2014	1408966219	99	99	198	99
Mon Aug 25 21:30:20 2014	1408966220	99	99	198	99
Mon Aug 25 21:30:20 2014	1408966220	96	102	198	102
Mon Aug 25 21:30:19 2014	1408966219	100	99	198	98
Mon Aug 25 21:30:22 2014	1408966222	97	101	198	101
Mon Aug 25 21:30:23 2014	1408966223	100	99	198	99
Mon Aug 25 21:30:23 2014	1408966223	100	98	198	98
Mon Aug 25 21:30:21 2014	1408966221	98	101	198	101
Mon Aug 25 21:30:22 2014	1408966222	98	100	198	100
Mon Aug 25 21:30:23 2014	1408966223	100	98	198	98
Mon Aug 25 21:30:19 2014	1408966219	99	100	199	100
Mon Aug 25 21:30:19 2014	1408966219	100	98	199	98
Mon Aug 25 21:30:23 2014	1408966223	101	98	199	98
Mon Aug 25 21:30:22 2014	1408966222	98	100	199	100
Mon Aug 25 21:30:20 2014	1408966220	98	101	199	101
Mon Aug 25 21:30:22 2014	1408966222	97	102	199	102
Mon Aug 25 21:30:23 2014	1408966223	101	98	199	98
Mon Aug 25 21:30:21 2014	1408966221	101	98	199	98
Mon Aug 25 21:30:23 2014	1408966223	99	100	199	100
Mon Aug 25 21:30:21 2014	1408966221	101	98	199	98
Mon Aug 25 21:30:23 2014	1408966223	99	101	199	101
Mon Aug 25 21:30:19 2014	1408966219	98	101	200	101
Mon Aug 25 21:30:23 2014	1408966223	99	100	200	100
Mon Aug 25 21:30:20 2014	1408966220	102	97	200	97
Mon Aug 25 21:30:22 2014	1408966222	99	101	200	101
Mon Aug 25 21:30:19 2014	1408966219	101	99	200	99
Mon Aug 25 21:30:22 2014	1408966222	99	102	200	102
Mon Aug 25 21:30:22 2014	1408966222	101	99	200	99
Mon Aug 25 21:30:19 2014	1408966219	102	99	200	99
Mon Aug 25 21:30:23 2014	1408966223	102	99	201	99
Mon Aug 25 21:30:19 2014	1408966219	99	102	201	101
Mon Aug 25 21:30:22 2014	1408966222	101	100	201	100
Mon Aug 25 21:30:21 2014	1408966221	99	102	201	102
Mon Aug 25 21:30:23 2014	1408966223	103	98	201	98
Mon Aug 25 21:30:21 2014	1408966221	99	102	201	102
Mon Aug 25 21:30:21 2014	1408966221	99	102	201	102
Mon Aug 25 21:30:20 2014	1408966220	99	102	202	102
Mon Aug 25 21:30:20 2014	1408966220	100	102	202	102
Mon Aug 25 21:30:21 2014	1408966221	103	99	202	99
Mon Aug 25 21:30:22 2014	1408966222	101	101	202	101
Mon Aug 25 21:30:23 2014	1408966223	101	102	202	102
Mon Aug 25 21:30:23 2014	1408966223	100	103	202	103
Mon Aug 25 21:30:19 2014	1408966219	101	101	202	101
Mon Aug 25 21:30:22 2014	1408966222	101	102	203	102
Mon Aug 25 21:30:23 2014	1408966223	101	102	203	102
Mon Aug 25 21:30:20 2014	1408966220	102	101	203	101
Mon Aug 25 21:30:22 2014	1408966222	102	101	203	101
Mon Aug 25 21:30:20 2014	1408966220	101	102	203	102
Mon Aug 25 21:30:23 2014	1408966223	101	102	203	102
Mon Aug 25 21:30:19 2014	1408966219	100	103	203	103
Mon Aug 25 21:30:21 2014	1408966221	101	102	203	102
Mon Aug 25 21:30:20 2014	1408966220	99	104	203	104
Mon Aug 25 21:30:20 2014	1408966220	101	102	203	102
Mon Aug 25 21:30:20 2014	1408966220	100	103	203	103
Mon Aug 25 21:30:22 2014	1408966222	101	102	203	102
Mon Aug 25 21:30:22 2014	1408966222	102	102	204	102
Mon Aug 25 21:30:22 2014	1408966222	101	103	204	103
Mon Aug 25 21:30:22 2014	1408966222	101	103	204	103
Mon Aug 25 21:30:22 2014	1408966222	102	101	204	101
Mon Aug 25 21:30:23 2014	1408966223	103	101	204	101
Mon Aug 25 21:30:20 2014	1408966220	101	103	204	103
Mon Aug 25 21:30:20 2014	1408966220	101	103	204	103
Mon Aug 25 21:30:22 2014	1408966222	103	101	204	101
Mon Aug 25 21:30:19 2014	1408966219	103	101	204	101
Mon Aug 25 21:30:21 2014	1408966221	103	101	204	101
Mon Aug 25 21:30:20 2014	1408966220	100	104	204	104
Mon Aug 25 21:30:22 2014	1408966222	101	103	204	103
Mon Aug 25 21:30:19 2014	1408966219	104	100	204	100
Mon Aug 25 21:30:22 2014	1408966222	103	101	204	101
Mon Aug 25 21:30:21 2014	1408966221	103	101	204	101
Mon Aug 25 21:30:19 2014	1408966219	100	104	204	104
Mon Aug 25 21:30:21 2014	1408966221	104	101	204	101
Mon Aug 25 21:30:21 2014	1408966221	103	101	205	101
Mon Aug 25 21:30:22 2014	1408966222	103	102	205	102
Mon Aug 25 21:30:22 2014	1408966222	102	102	205	102
Mon Aug 25 21:30:24 2014	1408966224	101	103	205	103
Mon Aug 25 21:30:21 2014	1408966221	103	102	205	102
Mon Aug 25 21:30:22 2014	1408966222	99	105	205	105
Mon Aug 25 21:30:22 2014	1408966222	104	101	205	101
Mon Aug 25 21:30:19 2014	1408966219	103	102	205	102
Mon Aug 25 21:30:22 2014	1408966222	102	103	205	103
Mon Aug 25 21:30:24 2014	1408966224	102	103	205	103
Mon Aug 25 21:30:25 2014	1408966225	102	103	205	103
Mon Aug 25 21:30:25 2014	1408966225	103	103	205	102
Mon Aug 25 21:30:22 2014	1408966222	103	102	205	102
Mon Aug 25 21:30:22 2014	1408966222	104	101	205	101
Mon Aug 25 21:30:20 2014	1408966220	103	103	205	102
Mon Aug 25 21:30:20 2014	1408966220	103	103	205	102
Mon Aug 25 21:30:24 2014	1408966224	103	103	205	103
Mon Aug 25 21:30:23 2014	1408966223	101	105	206	105
Mon Aug 25 21:30:21 2014	1408966221	104	102	206	102
Mon Aug 25 21:30:22 2014	1408966222	102	104	206	104
Mon Aug 25 21:30:24 2014	1408966224	101	104	206	104
Mon Aug 25 21:30:24 2014	1408966224	102	104	206	103
Mon Aug 25 21:30:23 2014	1408966223	102	104	206	104
Mon Aug 25 21:30:24 2014	1408966224	103	103	206	103
Mon Aug 25 21:30:18 2014	1408966218	104	102	206	102
Mon Aug 25 21:30:22 2014	1408966222	101	105	206	104
Mon Aug 25 21:30:24 2014	1408966224	102	104	206	104
Mon Aug 25 21:30:21 2014	1408966221	101	105	206	104
Mon Aug 25 21:30:23 2014	1408966223	102	103	206	103
Mon Aug 25 21:30:20 2014	1408966220	102	104	206	104
Mon Aug 25 21:30:21 2014	1408966221	103	103	206	103
Mon Aug 25 21:30:23 2014	1408966223	102	103	206	103
Mon Aug 25 21:30:21 2014	1408966221	101	105	206	105
Mon Aug 25 21:30:20 2014	1408966220	105	101	206	101
Mon Aug 25 21:30:24 2014	1408966224	103	103	206	103
Mon Aug 25 21:30:23 2014	1408966223	102	104	206	104
Mon Aug 25 21:30:21 2014	1408966221	102	104	206	104
Mon Aug 25 21:30:23 2014	1408966223	104	103	206	102
Mon Aug 25 21:30:21 2014	1408966221	101	105	206	105
Mon Aug 25 21:30:21 2014	1408966221	102	104	206	104
Mon Aug 25 21:30:23 2014	1408966223	103	104	206	104
Mon Aug 25 21:30:25 2014	1408966225	104	103	206	103
Mon Aug 25 21:30:23 2014	1408966223	103	104	206	103
Mon Aug 25 21:30:23 2014	1408966223	102	105	207	104
Mon Aug 25 21:30:22 2014	1408966222	103	104	207	104
Mon Aug 25 21:30:22 2014	1408966222	103	104	207	103
Mon Aug 25 21:30:20 2014	1408966220	104	103	207	103
Mon Aug 25 21:30:24 2014	1408966224	104	103	207	103
Mon Aug 25 21:30:23 2014	1408966223	103	104	207	104
Mon Aug 25 21:30:19 2014	1408966219	102	105	207	105
Mon Aug 25 21:30:22 2014	1408966222	103	103	207	103
Mon Aug 25 21:30:21 2014	1408966221	103	104	207	104
Mon Aug 25 21:30:22 2014	1408966222	103	104	207	104
Mon Aug 25 21:30:20 2014	1408966220	103	104	207	104
Mon Aug 25 21:30:22 2014	1408966222	103	104	207	104
Mon Aug 25 21:30:21 2014	1408966221	103	104	207	104
Mon Aug 25 21:30:23 2014	1408966223	104	103	207	103
Mon Aug 25 21:30:23 2014	1408966223	104	104	207	103
Mon Aug 25 21:30:18 2014	1408966218	105	102	207	102
Mon Aug 25 21:30:21 2014	1408966221	104	103	207	103
Mon Aug 25 21:30:22 2014	1408966222	104	104	207	104
Mon Aug 25 21:30:19 2014	1408966219	109	98	208	98
Mon Aug 25 21:30:22 2014	1408966222	103	105	208	105
Mon Aug 25 21:30:23 2014	1408966223	104	104	208	104
Mon Aug 25 21:30:22 2014	1408966222	105	103	208	102
Mon Aug 25 21:30:21 2014	1408966221	103	104	208	104
Mon Aug 25 21:30:24 2014	1408966224	104	104	208	104
Mon Aug 25 21:30:22 2014	1408966222	103	105	208	105
Mon Aug 25 21:30:20 2014	1408966220	103	105	208	104
Mon Aug 25 21:30:24 2014	1408966224	103	105	208	104
Mon Aug 25 21:30:24 2014	1408966224	104	104	208	104
Mon Aug 25 21:30:19 2014	1408966219	106	102	208	102
Mon Aug 25 21:30:24 2014	1408966224	104	104	208	104
Mon Aug 25 21:30:21 2014	1408966221	103	105	208	105
Mon Aug 25 21:30:20 2014	1408966220	103	105	208	105
Mon Aug 25 21:30:22 2014	1408966222	105	104	208	103
Mon Aug 25 21:30:21 2014	1408966221	106	103	208	102
Mon Aug 25 21:30:22 2014	1408966222	104	105	208	105
Mon Aug 25 21:30:23 2014	1408966223	104	105	208	105
Mon Aug 25 21:30:21 2014	1408966221	103	106	208	106
Mon Aug 25 21:30:23 2014	1408966223	104	104	208	104
Mon Aug 25 21:30:23 2014	1408966223	104	104	208	104
Mon Aug 25 21:30:24 2014	1408966224	104	104	208	104
Mon Aug 25 21:30:19 2014	1408966219	107	101	208	101
Mon Aug 25 21:30:23 2014	1408966223	103	105	208	105
Mon Aug 25 21:30:24 2014	1408966224	105	103	209	103
Mon Aug 25 21:30:19 2014	1408966219	106	103	209	103
Mon Aug 25 21:30:21 2014	1408966221	107	102	209	101
Mon Aug 25 21:30:22 2014	1408966222	103	105	209	105
Mon Aug 25 21:30:20 2014	1408966220	109	100	209	100
Mon Aug 25 21:30:21 2014	1408966221	100	108	209	108
Mon Aug 25 21:30:23 2014	1408966223	104	104	209	104
Mon Aug 25 21:30:23 2014	1408966223	104	105	209	105
Mon Aug 25 21:30:20 2014	1408966220	104	105	209	105
Mon Aug 25 21:30:22 2014	1408966222	104	105	209	104
Mon Aug 25 21:30:21 2014	1408966221	103	106	209	106
Mon Aug 25 21:30:19 2014	1408966219	102	107	209	107
Mon Aug 25 21:30:20 2014	1408966220	103	106	209	106
Mon Aug 25 21:30:22 2014	1408966222	103	106	209	106
Mon Aug 25 21:30:21 2014	1408966221	101	108	209	108
Mon Aug 25 21:30:24 2014	1408966224	104	106	210	106
Mon Aug 25 21:30:20 2014	1408966220	109	101	210	101
Mon Aug 25 21:30:24 2014	1408966224	105	104	210	104
Mon Aug 25 21:30:19 2014	1408966219	108	102	210	102
Mon Aug 25 21:30:18 2014	1408966218	106	104	210	104
Mon Aug 25 21:30:23 2014	1408966223	104	106	210	106
Mon Aug 25 21:30:22 2014	1408966222	103	107	210	107
Mon Aug 25 21:30:24 2014	1408966224	104	106	210	106
Mon Aug 25 21:30:24 2014	1408966224	107	103	210	103
Mon Aug 25 21:30:24 2014	1408966224	105	105	210	105
Mon Aug 25 21:30:24 2014	1408966224	105	105	210	105
Mon Aug 25 21:30:19 2014	1408966219	105	105	210	105
Mon Aug 25 21:30:19 2014	1408966219	108	103	211	103
Mon Aug 25 21:30:19 2014	1408966219	114	97	211	97
Mon Aug 25 21:30:21 2014	1408966221	109	102	211	102
Mon Aug 25 21:30:19 2014	1408966219	109	102	211	102
Mon Aug 25 21:30:24 2014	1408966224	105	106	211	106
Mon Aug 25 21:30:19 2014	1408966219	106	105	211	105
Mon Aug 25 21:30:19 2014	1408966219	103	108	211	108
Mon Aug 25 21:30:18 2014	1408966218	107	105	212	105
Mon Aug 25 21:30:20 2014	1408966220	104	108	212	108
Mon Aug 25 21:30:20 2014	1408966220	107	106	212	106
Mon Aug 25 21:30:20 2014	1408966220	109	104	213	104
Mon Aug 25 21:30:19 2014	1408966219	103	111	214	111
Mon Aug 25 21:30:24 2014	1408966224	106	108	214	107
Mon Aug 25 21:30:19 2014	1408966219	109	105	214	105
Mon Aug 25 21:30:19 2014	1408966219	109	105	214	105
Mon Aug 25 21:30:20 2014	1408966220	110	104	214	104
Mon Aug 25 21:30:24 2014	1408966224	102	113	215	113
Mon Aug 25 21:30:19 2014	1408966219	118	98	216	97
Mon Aug 25 21:30:19 2014	1408966219	103	116	219	116
Mon Aug 25 21:30:19 2014	1408966219	109	110	219	109
Mon Aug 25 21:30:19 2014	1408966219	123	98	221	98
Mon Aug 25 21:30:19 2014	1408966219	96	125	222	125
Mon Aug 25 21:30:21 2014	1408966221	97	125	222	125
Mon Aug 25 21:30:21 2014	1408966221	97	124	222	124
Mon Aug 25 21:30:21 2014	1408966221	97	125	222	125
Mon Aug 25 21:30:21 2014	1408966221	97	125	222	125
Mon Aug 25 21:30:19 2014	1408966219	119	104	222	104
Mon Aug 25 21:30:21 2014	1408966221	97	126	223	126
Mon Aug 25 21:30:20 2014	1408966220	122	103	225	103
Mon Aug 25 21:30:19 2014	1408966219	105	124	229	124
Mon Aug 25 21:30:25 2014	1408966225	131	105	237	105
Mon Aug 25 21:30:24 2014	1408966224	130	109	239	109
Mon Aug 25 21:30:19 2014	1408966219	97	143	239	142
Mon Aug 25 21:30:24 2014	1408966224	131	109	240	109
Mon Aug 25 21:30:25 2014	1408966225	137	104	240	103
Mon Aug 25 21:30:24 2014	1408966224	131	114	245	114
Mon Aug 25 21:30:24 2014	1408966224	131	114	245	114
Mon Aug 25 21:30:24 2014	1408966224	144	102	246	102
Mon Aug 25 21:30:25 2014	1408966225	112	134	246	134
Mon Aug 25 21:30:24 2014	1408966224	129	117	246	117
Mon Aug 25 21:30:24 2014	1408966224	141	108	250	108
Mon Aug 25 21:30:18 2014	1408966218	108	145	253	145
Mon Aug 25 21:30:18 2014	1408966218	111	147	258	147
Mon Aug 25 21:30:18 2014	1408966218	111	147	258	147
Mon Aug 25 21:30:18 2014	1408966218	112	146	258	146
Mon Aug 25 21:30:18 2014	1408966218	114	144	258	144
Mon Aug 25 21:30:18 2014	1408966218	115	144	258	143
Mon Aug 25 21:30:19 2014	1408966219	97	166	263	166
Mon Aug 25 21:30:24 2014	1408966224	173	111	284	111
Mon Aug 25 21:30:24 2014	1408966224	108	179	287	179
Mon Aug 25 21:30:24 2014	1408966224	109	180	289	180
Mon Aug 25 21:30:24 2014	1408966224	213	103	315	103
Mon Aug 25 21:30:24 2014	1408966224	110	212	322	212
Mon Aug 25 21:30:24 2014	1408966224	112	211	323	211
Mon Aug 25 21:30:24 2014	1408966224	107	226	332	226
Mon Aug 25 21:30:24 2014	1408966224	110	223	333	223
Mon Aug 25 21:30:24 2014	1408966224	125	208	333	208
Mon Aug 25 21:30:24 2014	1408966224	211	130	342	130
Mon Aug 25 21:30:24 2014	1408966224	168	220	388	220
